…
```python
query = table.filter("""
    ethnicity == 'African'
    AND assay LIKE '%10%'
    AND tissue == 'lung parenchyma'
    AND cell_type LIKE '%CD4%'
""")
query
```




    ┌──────────────────────┬──────────────────────┬──────────────────────┬───┬──────────────────────┬──────────────────────┐
    │        .cell         │     sample_id_db     │       .sample        │ … │ n_cell_type_in_tis…  │ n_tissue_in_cell_t…  │
    │       varchar        │       varchar        │       varchar        │   │        int64         │        int64         │
    ├──────────────────────┼──────────────────────┼──────────────────────┼───┼──────────────────────┼──────────────────────┤
    │ ACAGCCGGTCCGTTAA_F…  │ 33cdeb84ae1462d723…  │ 4fc10a6b85e5fa688b…  │ … │                   28 │                   31 │
    │ GGGAATGAGCCCAGCT_F…  │ 33cdeb84ae1462d723…  │ 4fc10a6b85e5fa688b…  │ … │                   28 │                   32 │
    │ TCTTCGGAGTAGCGGT_F…  │ 33cdeb84ae1462d723…  │ 4fc10a6b85e5fa688b…  │ … │                   28 │                   32 │
    │ CCTTACGAGAGCTGCA_F…  │ 33cdeb84ae1462d723…  │ 4fc10a6b85e5fa688b…  │ … │                   28 │                   32 │
    │ ATCTACTCAATGGAAT_F…  │ 33cdeb84ae1462d723…  │ 4fc10a6b85e5fa688b…  │ … │                   28 │                   32 │
    │ CATCAGACACCGTTGG_F…  │ c7f14e86df84af9ad1…  │ 9ef5eab00316c489a3…  │ … │                 NULL │                 NULL │
    │ AGTCTTTGTTAGTGGG_F…  │ c7f14e86df84af9ad1…  │ 9ef5eab00316c489a3…  │ … │                   28 │                   31 │
    │ CGCGTTTGTAAGTAGT_F…  │ 33cdeb84ae1462d723…  │ 4fc10a6b85e5fa688b…  │ … │                   28 │                   32 │
    │ TGGCTGGCAACGATCT_F…  │ c7f14e86df84af9ad1…  │ 9ef5eab00316c489a3…  │ … │                   28 │                   32 │
    │ TTCCCAGAGCAGGCTA_F…  │ 33cdeb84ae1462d723…  │ 4fc10a6b85e5fa688b…  │ … │                   28 │                   32 │
    │          ·           │          ·           │          ·           │ · │                    · │                    · │
    │          ·           │          ·           │          ·           │ · │                    · │                    · │
    │          ·           │          ·           │          ·           │ · │                    · │                    · │
    │ GTAACCATCGCTGTTC_S…  │ 21ef23ac07391c64ca…  │ 13f5331436ecaeaeff…  │ … │                   28 │                   32 │
    │ ACGAGCCAGGTCATCT_F…  │ 33cdeb84ae1462d723…  │ 4fc10a6b85e5fa688b…  │ … │                   28 │                   32 │
    │ CAGCATACAAGGGTCA_F…  │ 87e1dbaeee064aa213…  │ 88c152c8536575c47a…  │ … │                   28 │                   32 │
    │ TCGTACCAGAGTACCG_F…  │ c7f14e86df84af9ad1…  │ 9ef5eab00316c489a3…  │ … │                   28 │                   32 │
    │ GCGGGTTAGCGTTGCC_F…  │ c7f14e86df84af9ad1…  │ 9ef5eab00316c489a3…  │ … │                   28 │                   32 │
    │ TACTTACGTAATAGCA_F…  │ 33cdeb84ae1462d723…  │ 4fc10a6b85e5fa688b…  │ … │                   28 │                   32 │
    │ AGATAGAGTGCCTTCT_S…  │ 21ef23ac07391c64ca…  │ 13f5331436ecaeaeff…  │ … │                   28 │                   32 │
    │ CGCGGTATCCGCGCAA_S…  │ 9dfbd16390b119392a…  │ 055e5172053464e8ef…  │ … │                   28 │                   32 │
    │ TACAACGTCAGCATTG_S…  │ 21ef23ac07391c64ca…  │ 13f5331436ecaeaeff…  │ … │                   28 │                   32 │
    │ CATTCGCTCAATACCG_F…  │ 33cdeb84ae1462d723…  │ 4fc10a6b85e5fa688b…  │ … │                   28 │                   31 │
    ├──────────────────────┴──────────────────────┴──────────────────────┴───┴──────────────────────┴──────────────────────┤
    │ 1571 rows (20 shown)                                                                            56 columns (5 shown) │
…
